{
	"info": {
		"_postman_id": "0f56af0d-3f7a-47e9-8a0a-313bb31c9df1",
		"name": "SUPPORT-PROFILES",
		"schema": "https://schema.getpostman.com/json/collection/v2.1.0/collection.json"
	},
	"item": [
		{
			"name": "PING",
			"request": {
				"method": "GET",
				"header": [
					{
						"key": "Content-Type",
						"value": "application/json"
					}
				],
				"url": {
					"raw": "localhost:8080/moviired-api/supportprofiles/v1/ping",
					"host": [
						"localhost"
					],
					"port": "8080",
					"path": [
						"moviired-api",
						"supportprofiles",
						"v1",
						"ping"
					]
				}
			},
			"response": []
		},
		{
			"name": "findOperationsByStatus",
			"protocolProfileBehavior": {
				"disableBodyPruning": true
			},
			"request": {
				"method": "GET",
				"header": [
					{
						"key": "Content-Type",
						"value": "application/json"
					},
					{
						"key": "correlationId",
						"value": "0000001603",
						"type": "text"
					}
				],
				"body": {
					"mode": "raw",
					"raw": ""
				},
				"url": {
					"raw": "localhost:8080/moviired-api/supportprofiles/v1/operations/status/0",
					"host": [
						"localhost"
					],
					"port": "8080",
					"path": [
						"moviired-api",
						"supportprofiles",
						"v1",
						"operations",
						"status",
						"0"
					]
				}
			},
			"response": [
				{
					"name": "BUSINESS-DEPOSIT",
					"originalRequest": {
						"method": "POST",
						"header": [
							{
								"key": "Content-Type",
								"value": "application/json"
							},
							{
								"key": "merchantId",
								"value": "0000001603",
								"type": "text"
							},
							{
								"key": "posId",
								"value": "10001",
								"type": "text"
							},
							{
								"key": "Authorization",
								"value": "3124394759:1234",
								"type": "text"
							}
						],
						"body": {
							"mode": "raw",
							"raw": "{\r\n\t\"correlationId\": \"15148\",\r\n\t\"issueDate\": \"2019-02-15T11:15:36.262Z\",\r\n\t\"issuerId\": \"PruebaParaRev\",\r\n\t\"issuerName\": \"Ejemplo IssuerNAme\",\r\n    \"bname\":\"DEPOSITO BANCO AGRARIO\",\r\n    \"billerCode\":\"8035\",\r\n    \"destinationAccount\":\"1234\",\r\n    \"typeClient\":\"MERCHANT\",\r\n    \"accountType\":\"1234567890\",\r\n    \"amount\": \"1000\",\r\n    \"source\":\"PORTAL\",\r\n    \"ip\":\"192.168.0.2\",\r\n    \"productId\":\"8035\"\r\n}\r\n\r\n"
						},
						"url": {
							"raw": "localhost:8090/movii-api/banking/v1/cashIn",
							"host": [
								"localhost"
							],
							"port": "8090",
							"path": [
								"movii-api",
								"banking",
								"v1",
								"cashIn"
							]
						}
					},
					"status": "OK",
					"code": 200,
					"_postman_previewlanguage": "json",
					"header": [
						{
							"key": "Content-Type",
							"value": "application/json;charset=UTF-8"
						},
						{
							"key": "Content-Length",
							"value": "128"
						}
					],
					"cookie": [],
					"body": "{\n    \"bankTransactionId\": \"925297\",\n    \"referenceNumber\": \"1234\",\n    \"amount\": \"1000\",\n    \"errorType\": \"\",\n    \"errorCode\": \"200\",\n    \"errorMessage\": \"éxito\"\n}"
				}
			]
		},
		{
			"name": "findProfilesByStatus",
			"protocolProfileBehavior": {
				"disableBodyPruning": true
			},
			"request": {
				"method": "GET",
				"header": [
					{
						"key": "Content-Type",
						"value": "application/json"
					},
					{
						"key": "correlationId",
						"type": "text",
						"value": "5454545454544"
					}
				],
				"body": {
					"mode": "raw",
					"raw": ""
				},
				"url": {
					"raw": "localhost:8080/moviired-api/supportprofiles/v1/profiles/status/1",
					"host": [
						"localhost"
					],
					"port": "8080",
					"path": [
						"moviired-api",
						"supportprofiles",
						"v1",
						"profiles",
						"status",
						"1"
					]
				}
			},
			"response": [
				{
					"name": "BUSINESS-DEPOSIT",
					"originalRequest": {
						"method": "POST",
						"header": [
							{
								"key": "Content-Type",
								"value": "application/json"
							},
							{
								"key": "merchantId",
								"value": "0000001603",
								"type": "text"
							},
							{
								"key": "posId",
								"value": "10001",
								"type": "text"
							},
							{
								"key": "Authorization",
								"value": "3124394759:1234",
								"type": "text"
							}
						],
						"body": {
							"mode": "raw",
							"raw": "{\r\n\t\"correlationId\": \"15148\",\r\n\t\"issueDate\": \"2019-02-15T11:15:36.262Z\",\r\n\t\"issuerId\": \"PruebaParaRev\",\r\n\t\"issuerName\": \"Ejemplo IssuerNAme\",\r\n    \"bname\":\"DEPOSITO BANCO AGRARIO\",\r\n    \"billerCode\":\"8035\",\r\n    \"destinationAccount\":\"1234\",\r\n    \"typeClient\":\"MERCHANT\",\r\n    \"accountType\":\"1234567890\",\r\n    \"amount\": \"1000\",\r\n    \"source\":\"PORTAL\",\r\n    \"ip\":\"192.168.0.2\",\r\n    \"productId\":\"8035\"\r\n}\r\n\r\n"
						},
						"url": {
							"raw": "localhost:8090/movii-api/banking/v1/cashIn",
							"host": [
								"localhost"
							],
							"port": "8090",
							"path": [
								"movii-api",
								"banking",
								"v1",
								"cashIn"
							]
						}
					},
					"status": "OK",
					"code": 200,
					"_postman_previewlanguage": "json",
					"header": [
						{
							"key": "Content-Type",
							"value": "application/json;charset=UTF-8"
						},
						{
							"key": "Content-Length",
							"value": "128"
						}
					],
					"cookie": [],
					"body": "{\n    \"bankTransactionId\": \"925297\",\n    \"referenceNumber\": \"1234\",\n    \"amount\": \"1000\",\n    \"errorType\": \"\",\n    \"errorCode\": \"200\",\n    \"errorMessage\": \"éxito\"\n}"
				}
			]
		},
		{
			"name": "findProfilesByName",
			"protocolProfileBehavior": {
				"disableBodyPruning": true
			},
			"request": {
				"method": "GET",
				"header": [
					{
						"key": "Content-Type",
						"value": "application/json"
					},
					{
						"key": "correlationId",
						"type": "text",
						"value": "5454545454544"
					}
				],
				"body": {
					"mode": "raw",
					"raw": ""
				},
				"url": {
					"raw": "localhost:8080/moviired-api/supportprofiles/v1/profiles/name/ALLIANCE",
					"host": [
						"localhost"
					],
					"port": "8080",
					"path": [
						"moviired-api",
						"supportprofiles",
						"v1",
						"profiles",
						"name",
						"ALLIANCE"
					]
				}
			},
			"response": [
				{
					"name": "BUSINESS-DEPOSIT",
					"originalRequest": {
						"method": "POST",
						"header": [
							{
								"key": "Content-Type",
								"value": "application/json"
							},
							{
								"key": "merchantId",
								"value": "0000001603",
								"type": "text"
							},
							{
								"key": "posId",
								"value": "10001",
								"type": "text"
							},
							{
								"key": "Authorization",
								"value": "3124394759:1234",
								"type": "text"
							}
						],
						"body": {
							"mode": "raw",
							"raw": "{\r\n\t\"correlationId\": \"15148\",\r\n\t\"issueDate\": \"2019-02-15T11:15:36.262Z\",\r\n\t\"issuerId\": \"PruebaParaRev\",\r\n\t\"issuerName\": \"Ejemplo IssuerNAme\",\r\n    \"bname\":\"DEPOSITO BANCO AGRARIO\",\r\n    \"billerCode\":\"8035\",\r\n    \"destinationAccount\":\"1234\",\r\n    \"typeClient\":\"MERCHANT\",\r\n    \"accountType\":\"1234567890\",\r\n    \"amount\": \"1000\",\r\n    \"source\":\"PORTAL\",\r\n    \"ip\":\"192.168.0.2\",\r\n    \"productId\":\"8035\"\r\n}\r\n\r\n"
						},
						"url": {
							"raw": "localhost:8090/movii-api/banking/v1/cashIn",
							"host": [
								"localhost"
							],
							"port": "8090",
							"path": [
								"movii-api",
								"banking",
								"v1",
								"cashIn"
							]
						}
					},
					"status": "OK",
					"code": 200,
					"_postman_previewlanguage": "json",
					"header": [
						{
							"key": "Content-Type",
							"value": "application/json;charset=UTF-8"
						},
						{
							"key": "Content-Length",
							"value": "128"
						}
					],
					"cookie": [],
					"body": "{\n    \"bankTransactionId\": \"925297\",\n    \"referenceNumber\": \"1234\",\n    \"amount\": \"1000\",\n    \"errorType\": \"\",\n    \"errorCode\": \"200\",\n    \"errorMessage\": \"éxito\"\n}"
				}
			]
		},
		{
			"name": "saveProfile",
			"request": {
				"method": "POST",
				"header": [
					{
						"key": "Content-Type",
						"value": "application/json"
					},
					{
						"key": "correlationId",
						"type": "text",
						"value": "878454888478478"
					}
				],
				"body": {
					"mode": "raw",
					"raw": "{\n\t\"operationsId\": [\n        \"1\",\n        \"2\",\n        \"3\",\n        \"4\"\n        ],\n\t\n\t\"profile\": {\n\t\t\"profileName\": \"TEST23\",\n\t\t\"profileDescription\": \"Description 23\",\n\t\t\"enableDelete\": \"1\",\n\t\t\"createdUser\": \"User 23\"\n\t}\n\t\n}\n\n"
				},
				"url": {
					"raw": "localhost:8080/moviired-api/supportprofiles/v1/profiles",
					"host": [
						"localhost"
					],
					"port": "8080",
					"path": [
						"moviired-api",
						"supportprofiles",
						"v1",
						"profiles"
					]
				}
			},
			"response": [
				{
					"name": "BUSINESS-DEPOSIT",
					"originalRequest": {
						"method": "POST",
						"header": [
							{
								"key": "Content-Type",
								"value": "application/json"
							},
							{
								"key": "merchantId",
								"value": "0000001603",
								"type": "text"
							},
							{
								"key": "posId",
								"value": "10001",
								"type": "text"
							},
							{
								"key": "Authorization",
								"value": "3124394759:1234",
								"type": "text"
							}
						],
						"body": {
							"mode": "raw",
							"raw": "{\r\n\t\"correlationId\": \"15148\",\r\n\t\"issueDate\": \"2019-02-15T11:15:36.262Z\",\r\n\t\"issuerId\": \"PruebaParaRev\",\r\n\t\"issuerName\": \"Ejemplo IssuerNAme\",\r\n    \"bname\":\"DEPOSITO BANCO AGRARIO\",\r\n    \"billerCode\":\"8035\",\r\n    \"destinationAccount\":\"1234\",\r\n    \"typeClient\":\"MERCHANT\",\r\n    \"accountType\":\"1234567890\",\r\n    \"amount\": \"1000\",\r\n    \"source\":\"PORTAL\",\r\n    \"ip\":\"192.168.0.2\",\r\n    \"productId\":\"8035\"\r\n}\r\n\r\n"
						},
						"url": {
							"raw": "localhost:8090/movii-api/banking/v1/cashIn",
							"host": [
								"localhost"
							],
							"port": "8090",
							"path": [
								"movii-api",
								"banking",
								"v1",
								"cashIn"
							]
						}
					},
					"status": "OK",
					"code": 200,
					"_postman_previewlanguage": "json",
					"header": [
						{
							"key": "Content-Type",
							"value": "application/json;charset=UTF-8"
						},
						{
							"key": "Content-Length",
							"value": "128"
						}
					],
					"cookie": [],
					"body": "{\n    \"bankTransactionId\": \"925297\",\n    \"referenceNumber\": \"1234\",\n    \"amount\": \"1000\",\n    \"errorType\": \"\",\n    \"errorCode\": \"200\",\n    \"errorMessage\": \"éxito\"\n}"
				}
			]
		},
		{
			"name": "updateProfile",
			"request": {
				"method": "PUT",
				"header": [
					{
						"key": "Content-Type",
						"value": "application/json"
					},
					{
						"key": "correlationId",
						"type": "text",
						"value": "2232665994"
					}
				],
				"body": {
					"mode": "raw",
					"raw": "{\n\t\"operationsId\": [\n        \"1\",\n        \"2\",\n        \"4\"\n        ],\n\t\n\t\"profile\": {\n\t\t\"id\": \"39\",\n\t\t\"profileName\": \"TEST23 Update\",\n\t\t\"profileDescription\": \"Description 23 Update\",\n\t\t\"enableDelete\": \"1\",\n\t\t\"createdUser\": \"User 23 Update\"\n\t}\n\t\n}\n\n"
				},
				"url": {
					"raw": "localhost:8080/moviired-api/supportprofiles/v1/profiles",
					"host": [
						"localhost"
					],
					"port": "8080",
					"path": [
						"moviired-api",
						"supportprofiles",
						"v1",
						"profiles"
					]
				}
			},
			"response": [
				{
					"name": "BUSINESS-DEPOSIT",
					"originalRequest": {
						"method": "POST",
						"header": [
							{
								"key": "Content-Type",
								"value": "application/json"
							},
							{
								"key": "merchantId",
								"value": "0000001603",
								"type": "text"
							},
							{
								"key": "posId",
								"value": "10001",
								"type": "text"
							},
							{
								"key": "Authorization",
								"value": "3124394759:1234",
								"type": "text"
							}
						],
						"body": {
							"mode": "raw",
							"raw": "{\r\n\t\"correlationId\": \"15148\",\r\n\t\"issueDate\": \"2019-02-15T11:15:36.262Z\",\r\n\t\"issuerId\": \"PruebaParaRev\",\r\n\t\"issuerName\": \"Ejemplo IssuerNAme\",\r\n    \"bname\":\"DEPOSITO BANCO AGRARIO\",\r\n    \"billerCode\":\"8035\",\r\n    \"destinationAccount\":\"1234\",\r\n    \"typeClient\":\"MERCHANT\",\r\n    \"accountType\":\"1234567890\",\r\n    \"amount\": \"1000\",\r\n    \"source\":\"PORTAL\",\r\n    \"ip\":\"192.168.0.2\",\r\n    \"productId\":\"8035\"\r\n}\r\n\r\n"
						},
						"url": {
							"raw": "localhost:8090/movii-api/banking/v1/cashIn",
							"host": [
								"localhost"
							],
							"port": "8090",
							"path": [
								"movii-api",
								"banking",
								"v1",
								"cashIn"
							]
						}
					},
					"status": "OK",
					"code": 200,
					"_postman_previewlanguage": "json",
					"header": [
						{
							"key": "Content-Type",
							"value": "application/json;charset=UTF-8"
						},
						{
							"key": "Content-Length",
							"value": "128"
						}
					],
					"cookie": [],
					"body": "{\n    \"bankTransactionId\": \"925297\",\n    \"referenceNumber\": \"1234\",\n    \"amount\": \"1000\",\n    \"errorType\": \"\",\n    \"errorCode\": \"200\",\n    \"errorMessage\": \"éxito\"\n}"
				}
			]
		},
		{
			"name": "findProfile",
			"protocolProfileBehavior": {
				"disableBodyPruning": true
			},
			"request": {
				"method": "GET",
				"header": [
					{
						"key": "Content-Type",
						"value": "application/json"
					},
					{
						"key": "correlationId",
						"type": "text",
						"value": "77FD54AFE8584FA38DFE4411B8A966C4"
					}
				],
				"body": {
					"mode": "raw",
					"raw": ""
				},
				"url": {
					"raw": "192.168.29.50:41001/moviired-api/supportprofiles/v1/profiles/1",
					"host": [
						"192",
						"168",
						"29",
						"50"
					],
					"port": "41001",
					"path": [
						"moviired-api",
						"supportprofiles",
						"v1",
						"profiles",
						"1"
					]
				}
			},
			"response": [
				{
					"name": "BUSINESS-DEPOSIT",
					"originalRequest": {
						"method": "POST",
						"header": [
							{
								"key": "Content-Type",
								"value": "application/json"
							},
							{
								"key": "merchantId",
								"value": "0000001603",
								"type": "text"
							},
							{
								"key": "posId",
								"value": "10001",
								"type": "text"
							},
							{
								"key": "Authorization",
								"value": "3124394759:1234",
								"type": "text"
							}
						],
						"body": {
							"mode": "raw",
							"raw": "{\r\n\t\"correlationId\": \"15148\",\r\n\t\"issueDate\": \"2019-02-15T11:15:36.262Z\",\r\n\t\"issuerId\": \"PruebaParaRev\",\r\n\t\"issuerName\": \"Ejemplo IssuerNAme\",\r\n    \"bname\":\"DEPOSITO BANCO AGRARIO\",\r\n    \"billerCode\":\"8035\",\r\n    \"destinationAccount\":\"1234\",\r\n    \"typeClient\":\"MERCHANT\",\r\n    \"accountType\":\"1234567890\",\r\n    \"amount\": \"1000\",\r\n    \"source\":\"PORTAL\",\r\n    \"ip\":\"192.168.0.2\",\r\n    \"productId\":\"8035\"\r\n}\r\n\r\n"
						},
						"url": {
							"raw": "localhost:8090/movii-api/banking/v1/cashIn",
							"host": [
								"localhost"
							],
							"port": "8090",
							"path": [
								"movii-api",
								"banking",
								"v1",
								"cashIn"
							]
						}
					},
					"status": "OK",
					"code": 200,
					"_postman_previewlanguage": "json",
					"header": [
						{
							"key": "Content-Type",
							"value": "application/json;charset=UTF-8"
						},
						{
							"key": "Content-Length",
							"value": "128"
						}
					],
					"cookie": [],
					"body": "{\n    \"bankTransactionId\": \"925297\",\n    \"referenceNumber\": \"1234\",\n    \"amount\": \"1000\",\n    \"errorType\": \"\",\n    \"errorCode\": \"200\",\n    \"errorMessage\": \"éxito\"\n}"
				}
			]
		},
		{
			"name": "findOperation",
			"protocolProfileBehavior": {
				"disableBodyPruning": true
			},
			"request": {
				"method": "GET",
				"header": [
					{
						"key": "Content-Type",
						"value": "application/json"
					},
					{
						"key": "correlationId",
						"type": "text",
						"value": "77FD54AFE8584FA38DFE4411B8A966C4"
					}
				],
				"body": {
					"mode": "raw",
					"raw": ""
				},
				"url": {
					"raw": "localhost:8080/moviired-api/supportprofiles/v1/operations/1",
					"host": [
						"localhost"
					],
					"port": "8080",
					"path": [
						"moviired-api",
						"supportprofiles",
						"v1",
						"operations",
						"1"
					]
				}
			},
			"response": [
				{
					"name": "BUSINESS-DEPOSIT",
					"originalRequest": {
						"method": "POST",
						"header": [
							{
								"key": "Content-Type",
								"value": "application/json"
							},
							{
								"key": "merchantId",
								"value": "0000001603",
								"type": "text"
							},
							{
								"key": "posId",
								"value": "10001",
								"type": "text"
							},
							{
								"key": "Authorization",
								"value": "3124394759:1234",
								"type": "text"
							}
						],
						"body": {
							"mode": "raw",
							"raw": "{\r\n\t\"correlationId\": \"15148\",\r\n\t\"issueDate\": \"2019-02-15T11:15:36.262Z\",\r\n\t\"issuerId\": \"PruebaParaRev\",\r\n\t\"issuerName\": \"Ejemplo IssuerNAme\",\r\n    \"bname\":\"DEPOSITO BANCO AGRARIO\",\r\n    \"billerCode\":\"8035\",\r\n    \"destinationAccount\":\"1234\",\r\n    \"typeClient\":\"MERCHANT\",\r\n    \"accountType\":\"1234567890\",\r\n    \"amount\": \"1000\",\r\n    \"source\":\"PORTAL\",\r\n    \"ip\":\"192.168.0.2\",\r\n    \"productId\":\"8035\"\r\n}\r\n\r\n"
						},
						"url": {
							"raw": "localhost:8090/movii-api/banking/v1/cashIn",
							"host": [
								"localhost"
							],
							"port": "8090",
							"path": [
								"movii-api",
								"banking",
								"v1",
								"cashIn"
							]
						}
					},
					"status": "OK",
					"code": 200,
					"_postman_previewlanguage": "json",
					"header": [
						{
							"key": "Content-Type",
							"value": "application/json;charset=UTF-8"
						},
						{
							"key": "Content-Length",
							"value": "128"
						}
					],
					"cookie": [],
					"body": "{\n    \"bankTransactionId\": \"925297\",\n    \"referenceNumber\": \"1234\",\n    \"amount\": \"1000\",\n    \"errorType\": \"\",\n    \"errorCode\": \"200\",\n    \"errorMessage\": \"éxito\"\n}"
				}
			]
		},
		{
			"name": "deleteProfile",
			"request": {
				"method": "DELETE",
				"header": [
					{
						"key": "Content-Type",
						"value": "application/json"
					},
					{
						"key": "correlationId",
						"type": "text",
						"value": "77FD54AFE8584FA38DFE4411B8A966C4"
					}
				],
				"body": {
					"mode": "raw",
					"raw": ""
				},
				"url": {
					"raw": "localhost:8080/moviired-api/supportprofiles/v1/profiles/36",
					"host": [
						"localhost"
					],
					"port": "8080",
					"path": [
						"moviired-api",
						"supportprofiles",
						"v1",
						"profiles",
						"36"
					]
				}
			},
			"response": [
				{
					"name": "BUSINESS-DEPOSIT",
					"originalRequest": {
						"method": "POST",
						"header": [
							{
								"key": "Content-Type",
								"value": "application/json"
							},
							{
								"key": "merchantId",
								"value": "0000001603",
								"type": "text"
							},
							{
								"key": "posId",
								"value": "10001",
								"type": "text"
							},
							{
								"key": "Authorization",
								"value": "3124394759:1234",
								"type": "text"
							}
						],
						"body": {
							"mode": "raw",
							"raw": "{\r\n\t\"correlationId\": \"15148\",\r\n\t\"issueDate\": \"2019-02-15T11:15:36.262Z\",\r\n\t\"issuerId\": \"PruebaParaRev\",\r\n\t\"issuerName\": \"Ejemplo IssuerNAme\",\r\n    \"bname\":\"DEPOSITO BANCO AGRARIO\",\r\n    \"billerCode\":\"8035\",\r\n    \"destinationAccount\":\"1234\",\r\n    \"typeClient\":\"MERCHANT\",\r\n    \"accountType\":\"1234567890\",\r\n    \"amount\": \"1000\",\r\n    \"source\":\"PORTAL\",\r\n    \"ip\":\"192.168.0.2\",\r\n    \"productId\":\"8035\"\r\n}\r\n\r\n"
						},
						"url": {
							"raw": "localhost:8090/movii-api/banking/v1/cashIn",
							"host": [
								"localhost"
							],
							"port": "8090",
							"path": [
								"movii-api",
								"banking",
								"v1",
								"cashIn"
							]
						}
					},
					"status": "OK",
					"code": 200,
					"_postman_previewlanguage": "json",
					"header": [
						{
							"key": "Content-Type",
							"value": "application/json;charset=UTF-8"
						},
						{
							"key": "Content-Length",
							"value": "128"
						}
					],
					"cookie": [],
					"body": "{\n    \"bankTransactionId\": \"925297\",\n    \"referenceNumber\": \"1234\",\n    \"amount\": \"1000\",\n    \"errorType\": \"\",\n    \"errorCode\": \"200\",\n    \"errorMessage\": \"éxito\"\n}"
				}
			]
		}
	]
}