/var/jenkins_home/workspace/TestBuild2/src/main/java/co.moviired.support/conf/AppConfig.java
/var/jenkins_home/workspace/TestBuild2/src/main/java/co.moviired.support/domain/repository/IOperationRepository.java
/var/jenkins_home/workspace/TestBuild2/src/main/java/co.moviired.support/conf/DockerSecretProcessor.java
/var/jenkins_home/workspace/TestBuild2/src/main/java/co.moviired.support/service/SupportProfilesController.java
/var/jenkins_home/workspace/TestBuild2/src/main/java/co.moviired.support/domain/dto/Response.java
/var/jenkins_home/workspace/TestBuild2/src/main/java/co.moviired.support/domain/enums/OperationType.java
/var/jenkins_home/workspace/TestBuild2/src/main/java/co.moviired.support/helper/Utils.java
/var/jenkins_home/workspace/TestBuild2/src/main/java/co.moviired.support/conf/GlobalProperties.java
/var/jenkins_home/workspace/TestBuild2/src/main/java/co.moviired.support/service/SupportProfilesService.java
/var/jenkins_home/workspace/TestBuild2/src/main/java/co.moviired.support/domain/entity/Profile.java
/var/jenkins_home/workspace/TestBuild2/src/main/java/co.moviired.support/domain/entity/Operation.java
/var/jenkins_home/workspace/TestBuild2/src/main/java/co.moviired.support/domain/dto/Request.java
/var/jenkins_home/workspace/TestBuild2/src/main/java/co.moviired.support/SupportProfilesApplication.java
/var/jenkins_home/workspace/TestBuild2/src/main/java/co.moviired.support/domain/enums/GeneralStatus.java
/var/jenkins_home/workspace/TestBuild2/src/main/java/co.moviired.support/domain/repository/IProfileRepository.java
